c,d,c,b,c,b,b,e,d,c,e,c,c,a,c
e,b,e,e,c,b,b,c,b,b,c,d,e,a,d
b,e,c,e,d,b,a,e,c,d,a,c,b,a,b
a,c,d,c,e,b,d,e,d,b,b,e,b,a,d
c,b,e,d,e,b,e,e,e,c,b,d,e,c,b
e,c,e,b,e,a,c,d,e,e,e,b,d,a,a
b,b,a,d,d,e,a,d,a,c,a,a,a,d,a
e,c,d,d,c,a,a,e,e,d,c,c,b,d,e
b,a,b,a,e,e,a,b,a,e,a,d,e,c,d
b,b,b,a,d,a,e,c,e,b,a,a,d,d,e
e,c,d,e,e,e,b,b,a,a,d,e,b,d,b
e,a,d,e,d,e,c,e,c,b,d,b,b,e,a
d,b,b,c,e,a,b,b,d,a,b,a,a,b,d
a,e,a,e,e,b,b,e,a,c,a,e,d,d,d
d,a,e,c,d,b,d,e,e,d,b,e,e,c,d
